[{
  "_id": {
    "$oid": "5fe11760d9d3444a202a92f8"
  },
  "role": "10",
  "created_at": {
    "$date": "2020-12-21T21:37:37.876Z"
  },
  "nom": "Xavir",
  "prenom": "Dylan",
  "email": "xavir.dylan@gmail.com",
  "password": "test",
  "sexe": "Homme",
  "datenaiss": {
    "$date": "1997-08-01T00:00:00Z"
  },
  "ville": {
    "$oid": "5fe4d346c865982d28afeee0"
  },
  "thumbnail": "uploads/photos/fxlwvgd2qj93daz33kk44t.jpg",
  "aboutme": "",
  "apparence": {
    "$oid": "5fd340c6572bfef4d36c0cdb"
  },
  "taille": 175,
  "origine": {
    "$oid": "5fd340e0572bfef4d36c0cdc"
  },
  "enfants": 0,
  "residence": {
    "$oid": "5fd340fd572bfef4d36c0cdd"
  },
  "sexualite": {
    "$oid": "5fd34119572bfef4d36c0cde"
  },
  "situation": {
    "$oid": "5fd34131572bfef4d36c0cdf"
  },
  "alcool": {
    "$oid": "5fd3408e572bfef4d36c0cda"
  },
  "tabac": {
    "$oid": "5fd3414d572bfef4d36c0ce0"
  },
  "__v": 0
},{
  "_id": {
    "$oid": "5ff7c6ee3b838555b892e89c"
  },
  "role": 10,
  "created_at": {
    "$date": "2021-01-07T03:02:45.605Z"
  },
  "nom": "Freitas",
  "prenom": "Rapahel",
  "email": "Freitas.raphael@gmail.com",
  "password": "test",
  "sexe": "Homme",
  "datenaiss": {
    "$date": "1997-08-01T00:00:00Z"
  },
  "ville": {
    "$oid": "5fd33d99572bfef4d36c0cd0"
  },
  "thumbnail": "uploads/photos/vg8t20tqmrrrthd53br1.jpg",
  "aboutme": "kllklkl",
  "apparence": {
    "$oid": "5fd33d99572bfef4d36c0cd0"
  },
  "taille": 175,
  "origine": {
    "$oid": "5fd33d99572bfef4d36c0cd0"
  },
  "enfants": 0,
  "residence": {
    "$oid": "5fd33d99572bfef4d36c0cd0"
  },
  "sexualite": {
    "$oid": "5fd33d99572bfef4d36c0cd0"
  },
  "situation": {
    "$oid": "5fd33d99572bfef4d36c0cd0"
  },
  "alcool": {
    "$oid": "5fd33d99572bfef4d36c0cd0"
  },
  "tabac": {
    "$oid": "5fd33d99572bfef4d36c0cd0"
  },
  "__v": 0
}]